scorer,Sophie,Sophie,Sophie,Sophie,Sophie,Sophie,Sophie,Sophie,Sophie,Sophie,Sophie,Sophie,Sophie,Sophie,Sophie,Sophie,Sophie,Sophie,Sophie,Sophie
bodyparts,nose,nose,head_centre,head_centre,ear_right,ear_right,ear_left,ear_left,shoulder_right,shoulder_right,shoulder_left,shoulder_left,body_centre,body_centre,hip_right,hip_right,hip_left,hip_left,tail_base,tail_base
coords,x,y,x,y,x,y,x,y,x,y,x,y,x,y,x,y,x,y,x,y
labeled-data\box4_coho0006_vi1_AB2018-05-23T10_15_58\img00022.png,,,215.91894312583966,328.0281811784275,186.25993218604052,295.2471690870705,239.33395176252313,289.7836670718444,184.01581110809028,281.88514827004315,224.5160378810576,272.6126607382765,201.0894376559401,249.19765210159295,171.430426716141,226.56314375279888,225.28494658051304,225.00214317701997,204.99193909538732,194.5626319493314
labeled-data\box4_coho0006_vi1_AB2018-05-23T10_15_58\img00031.png,235.4314503230759,317.8816774358646,221.3824451410658,294.4666687991811,182.35743074659328,281.1981639050604,232.30944917151808,263.2466572836031,180.79643017081438,260.1246561320453,222.16294542895528,248.4171518137035,199.52843708016124,231.2461454801356,175.3329281555883,220.3191414496833,222.16294542895523,219.53864116179383,205.7724393832768,189.09912993410526
labeled-data\box4_coho0006_vi1_AB2018-05-23T10_15_58\img00365.png,316.6034802635787,97.78059625103953,302.5544750815686,111.0491011451602,310.3594779604631,143.83011323651715,263.52946068709616,111.0491011451602,283.82246817222176,156.31811784274834,248.69995521719656,137.58611093340153,248.69995521719656,180.5136267673213,247.01440672313745,218.57131899648402,212.79694197428185,195.34313223722086,212.79694197428185,244.51465037425623
labeled-data\box4_coho0006_vi1_AB2018-05-23T10_15_58\img00394.png,301.77397479367914,274.1736613140554,297.87147335423197,262.4661569957136,271.33446356599063,251.5391529652613,314.2619793999104,221.09964173757274,265.8709615507645,233.58764634380395,297.87147335423197,208.61163713134152,257.28545838398054,196.90413281299976,224.5044462926236,205.4896359797837,251.82195636875437,167.24512187320065,198.74793679227176,182.0746273431002
labeled-data\box4_coho0006_vi1_AB2018-05-23T10_15_58\img00553.png,233.08994945940756,333.4916831936536,240.89495233830203,310.8571748448595,220.60194485317632,275.7346618898343,272.8954641417695,288.2226664960655,236.21195061096537,255.44165440470854,276.0174652933273,263.2466572836031,268.9929627023222,236.70964749536176,258.15791655153356,218.04821773970707,297.87147335423197,241.39264922269845,299.45385465598235,208.77770102238185
labeled-data\box4_coho0006_vi1_AB2018-05-23T10_15_58\img00614.png,,,109.77090397287438,114.171102296718,147.234917791568,120.41510459983363,100.404900518201,136.80561064551205,148.7959183673469,150.07411553963271,112.89290512443219,160.22061928219557,137.86891433689462,192.22113108566305,162.0605593986563,221.87627816265086,121.48999987965018,221.08418628632737,158.16192182202033,271.05166016249757
labeled-data\box4_coho0006_vi1_AB2018-05-23T10_15_58\img00625.png,267.43196212654334,179.73312647943186,245.57795406563875,184.41612820676855,228.40694773207085,217.97764058601493,214.35794255006076,168.80612244897955,213.51516830303117,215.51159180406634,200.3089373680506,183.69790187801922,178.45492930714605,209.92354187055994,164.46819808427605,241.26810130441822,151.98019347804487,194.6249059084715,132.40541232166848,242.1731495105879
labeled-data\box4_coho0006_vi1_AB2018-05-23T10_15_58\img00682.png,274.45646471754844,36.12107350777296,258.0659586718699,69.68258588701934,280.70046702066406,111.82960143304967,212.01644168639237,82.95109078113995,266.65146183865386,125.09810632717029,,,242.45595291408094,153.97661697908,253.37522921891056,180.52135449294397,221.39017286668846,168.80998631179088,226.06544686840252,209.39213741923098
labeled-data\box4_coho0006_vi1_AB2018-05-23T10_15_58\img00693.png,349.38449235493556,43.92607638666743,318.16448083935757,65.78008444757205,315.04247968779987,127.43960719083867,266.65146183865386,68.90208559912986,295.5377002161863,135.24847393254447,,,263.52946068709616,142.26911266073824,264.30996097498553,176.5956698766287,228.40694773207085,157.87911841852724,229.18744801996027,196.1236325251103
labeled-data\box4_coho0006_vi1_AB2018-05-23T10_15_58\img00841.png,201.0894376559401,175.05012475209514,208.11394024694513,184.41612820676855,246.35845435352817,182.85512763098964,205.7724393832768,215.63613972234657,253.38295694453328,207.83113684345207,219.04094427739747,230.46564519224614,257.28545838398054,245.2951506621457,281.9500978007424,265.2767883515708,238.6157254337738,272.5503867791364,258.8464589597594,307.73517369330176
labeled-data\box4_coho0006_vi1_AB2018-05-23T10_15_58\img00890.png,,,,,227.62644744418137,128.2201074787281,173.77192757980933,143.83011323651715,220.60194485317632,153.97661697908,194.84543535282447,166.4646215853112,222.16294542895523,189.87963022199472,252.6024566566438,210.95313799500988,215.91894312583966,223.44114260124107,249.48045550508604,263.2466572836031
labeled-data\box4_coho0006_vi1_AB2018-05-23T10_15_58\img01032.png,76.20939159362806,136.80561064551205,108.20990339709553,142.26911266073824,141.77141577634185,118.85410402405472,126.16141001855286,181.29412705521074,154.2594203825731,132.9031092060648,144.11291664001024,175.8306250399846,182.30823431887262,164.11066592981481,209.48811894530368,153.97661697908,201.02716369679993,194.43808403105118,229.96794830784975,200.80663425244703
labeled-data\box4_coho0006_vi1_AB2018-05-23T10_15_58\img01053.png,117.5759068517689,328.8086814663169,128.5029108822212,313.1986757085279,119.91740771543724,268.71015929882924,172.21092700403042,293.6861685112916,144.11291664001024,257.7831552683769,175.33292815558823,274.95416160194486,168.3084255645832,238.27064807114064,162.84492354935705,204.70913569189426,197.18693621649285,225.00214317701997,194.84543535282447,174.2696244642057
labeled-data\box4_coho0006_vi1_AB2018-05-23T10_15_58\img01089.png,,,144.89341692789966,321.0036785874224,116.79540656387948,289.00316678395495,176.89392873136714,291.3446676476233,,,169.0889258524726,273.3931610261659,147.234917791568,247.63665152581405,123.03940886699505,232.8071460559145,167.5279252766937,226.56314375279888,158.94242210990976,194.5626319493314
labeled-data\box4_coho0006_vi1_AB2018-05-23T10_15_58\img02019.png,201.8699379438295,133.6836094939543,210.45544111061346,157.09861813063776,246.35845435352817,167.24512187320065,191.72343420126666,189.87963022199472,249.49204709352003,197.70781627775722,204.99193909538732,204.70913569189426,230.74844859573918,226.57087147842154,251.82195636875437,265.6306606381961,205.76084779484282,254.70752047055512,212.79694197428185,286.66166592028657
labeled-data\box4_coho0006_vi1_AB2018-05-23T10_15_58\img03499.png,,,,,308.79847738468425,190.66013050988417,,,309.5789776725736,210.95313799500988,272.1149638538801,222.66064231335164,311.1399782483526,255.44165440470854,,,284.60296846011136,281.19816390506037,,
labeled-data\box4_coho0006_vi1_AB2018-05-23T10_15_58\img03649.png,131.624912033779,230.46564519224614,161.28392297357814,223.44114260124107,188.6014330497089,190.66013050988417,194.84543535282447,253.1001535410402,212.57690731865344,200.99345612986735,208.11394024694513,247.63665152581405,232.49627104893844,227.2190961224081,258.0659586718699,229.6851449043567,229.96794830784975,261.68565670782414,255.7244578082016,266.36865843516085
labeled-data\box4_coho0006_vi1_AB2018-05-23T10_15_58\img03711.png,97.28289936664319,178.9526261915424,111.33190454865328,190.66013050988417,161.28392297357814,195.34313223722086,105.08790224553772,237.4901477832512,,,123.81990915488453,249.19765210159295,166.15374657833516,236.39827769966118,,,193.28443477704556,261.68565670782414,208.89444053483462,235.14864691958283
labeled-data\box4_coho0006_vi1_AB2018-05-23T10_15_58\img03725.png,,,,,151.9179195189047,123.53710575139138,105.86840253342714,140.70811208495934,151.1374192310153,150.8546158275222,114.4539057002111,163.34262043375338,140.99091548845243,185.196628494658,167.5279252766937,205.4896359797837,129.28341117011067,222.66064231335164,175.33292815558823,262.4661569957136
labeled-data\box4_coho0006_vi1_AB2018-05-23T10_15_58\img08695.png,,,,,281.48096730855343,246.8561512379246,247.13895464141766,212.5141385707888,253.38295694453325,271.83216045038694,218.260443989508,269.49065958671866,,,,,259.3446506328803,302.7117409893323,,
